<svg width="18" height="18" viewBox="0 0 18 18" fill="none" xmlns="http://www.w3.org/2000/svg">
<path d="M16.3573 8.29162L17.5555 7.63774C17.8925 7.4561 18.0797 7.05651 17.9673 6.65691C17.5555 5.13118 16.6943 3.75076 15.5711 2.62462C15.2715 2.37033 14.8222 2.29768 14.4852 2.47931L13.2871 3.16953C12.9127 2.87891 12.5008 2.66095 12.0515 2.47931V1.13522C12.0515 0.735621 11.7894 0.408678 11.3776 0.299697C9.84244 -0.0998991 8.15756 -0.0998991 6.62244 0.299697C6.21058 0.408678 5.94848 0.735621 5.94848 1.13522V2.47931C5.49918 2.66095 5.08732 2.87891 4.7129 3.16953L3.51476 2.47931C3.17778 2.29768 2.72848 2.37033 2.42894 2.62462C1.30568 3.75076 0.444517 5.13118 0.0326556 6.65691C-0.0796702 7.05651 0.107539 7.4561 0.444517 7.63774L1.64266 8.29162C1.60522 8.54591 1.60522 8.76388 1.60522 9.01816C1.60522 9.23612 1.60522 9.45409 1.64266 9.67205L0.444517 10.3623C0.107539 10.5439 -0.0796702 10.9435 0.0326556 11.3431C0.444517 12.8688 1.30568 14.2492 2.42894 15.3754C2.72848 15.6297 3.17778 15.7023 3.51476 15.5207L4.7129 14.8305C5.08732 15.1211 5.49918 15.3391 5.94848 15.5207V16.8648C5.94848 17.2644 6.21058 17.5913 6.62244 17.7003C8.15756 18.0999 9.84244 18.0999 11.3776 17.7003C11.7894 17.5913 12.0515 17.2644 12.0515 16.8648V15.5207C12.5008 15.3391 12.9127 15.1211 13.2871 14.8305L14.4852 15.5207C14.8222 15.7023 15.2715 15.6297 15.5711 15.3754C16.6943 14.2492 17.5555 12.8688 17.9673 11.3431C18.0797 10.9435 17.8925 10.5439 17.5555 10.3623L16.3573 9.67205C16.3948 9.23612 16.3948 8.76388 16.3573 8.29162ZM14.3729 10.6165L16.0204 11.5247C15.7208 12.2876 15.309 13.0141 14.7473 13.6317L13.0999 12.7235C11.9018 13.7043 11.752 13.8133 10.2543 14.3219V16.1746C9.84244 16.2472 9.43058 16.2836 8.98128 16.2836C8.56942 16.2836 8.15756 16.2472 7.7457 16.1746V14.3219C6.24802 13.8133 6.06081 13.7043 4.90011 12.7235L3.25266 13.6317C2.69103 13.0141 2.27917 12.2876 1.97964 11.5247L3.62708 10.6165C3.32755 9.09082 3.32755 8.90918 3.62708 7.38345L1.97964 6.47528C2.27917 5.71241 2.69103 4.98587 3.25266 4.36831L4.90011 5.27649C6.09825 4.29566 6.24802 4.18668 7.7457 3.6781V1.82543C8.15756 1.75277 8.56942 1.71645 9.01872 1.71645C9.43058 1.71645 9.84244 1.75277 10.2543 1.82543V3.6781C11.752 4.18668 11.9392 4.29566 13.0999 5.27649L14.7473 4.36831C15.309 4.98587 15.7208 5.71241 16.0204 6.47528L14.3729 7.38345C14.6725 8.90918 14.6725 9.09082 14.3729 10.6165ZM9.01872 5.49445C7.0343 5.49445 5.42429 7.09284 5.42429 8.98184C5.42429 10.9072 7.0343 12.4692 9.01872 12.4692C10.9657 12.4692 12.6131 10.9072 12.6131 8.98184C12.6131 7.09284 10.9657 5.49445 9.01872 5.49445ZM9.01872 10.7255C8.00779 10.7255 7.22151 9.96266 7.22151 8.98184C7.22151 8.03734 8.00779 7.23814 9.01872 7.23814C9.99221 7.23814 10.8159 8.03734 10.8159 8.98184C10.8159 9.96266 9.99221 10.7255 9.01872 10.7255Z" fill="#282828" fill-opacity="0.7"/>
</svg>
