<svg width="30" height="16" viewBox="0 0 30 16" fill="none" xmlns="http://www.w3.org/2000/svg">
<path d="M11.1589 2.60933L0 16H30L18.8411 2.60933C16.8421 0.210557 13.1579 0.210562 11.1589 2.60933Z" fill="#00B624"/>
</svg>
